[2019-11-01 21:10:30] RabbitPrint.WARNING:  | | | proses_login.php -> cek user -> sql_user : SELECT * FROM s_user WHERE username LIKE 'superuser' AND password LIKE '21232f297a57a5a743894a0e4a801fc3' LIMIT 1 [] []
[2019-11-01 21:10:30] RabbitPrint.WARNING:  | | | proses_login.php -> id_user : 1 [] []
[2019-11-01 21:10:30] RabbitPrint.WARNING:  | | | proses_login.php -> insert ke s_login -> sql_login : INSERT INTO s_login (key_login, id_user, waktu_login, waktu_kadaluarsa, status, ip, pc_dan_browser) VALUES ('15726174301724', '1', '2019-11-01 21:10:30', '2019-11-02 21:10:30', '1', '::1', 'mozilla/5.0 (windows nt 10.0; win64; x64) applewebkit/537.36 (khtml, like gecko) chrome/78.0.3904.70 safari/537.36') [] []
[2019-11-01 21:10:30] RabbitPrint.WARNING:  | | | proses_login.php -> insert ke s_login -> SUCCESS [] []
[2019-11-01 21:10:30] RabbitPrint.WARNING:  | | | proses_login.php -> LOGIN SUKSES!! [] []
[2019-11-01 21:15:58] RabbitPrint.WARNING:  | | | daftar_pesanan.php -> membuka halaman [] []
[2019-11-01 21:15:58] RabbitPrint.WARNING:  | | | daftar_pesanan.php -> sel_pesanan : SELECT psn.*, plg.pelanggan_nama	FROM pesanan psn JOIN pelanggan plg ON plg.pelanggan_id = psn.pesanan_pelanggan_id ORDER BY psn.pesanan_id DESC [] []
[2019-11-01 21:15:58] RabbitPrint.WARNING:  | | | daftar_pesanan.php -> jml. pesanan : 0 [] []
[2019-11-01 21:17:04] RabbitPrint.WARNING:  | | | daftar_pesanan.php -> membuka halaman [] []
[2019-11-01 21:17:04] RabbitPrint.WARNING:  | | | daftar_pesanan.php -> sel_pesanan : SELECT psn.*, plg.pelanggan_nama	FROM pesanan psn JOIN pelanggan plg ON plg.pelanggan_id = psn.pesanan_pelanggan_id ORDER BY psn.pesanan_id DESC [] []
[2019-11-01 21:18:19] RabbitPrint.WARNING:  | | | data_pelanggan.php -> sel_pelanggan : SELECT * FROM pelanggan [] []
[2019-11-01 21:18:19] RabbitPrint.WARNING:  | | | data_pelanggan.php -> jml. pelanggan : 1 [] []
[2019-11-01 21:18:19] RabbitPrint.WARNING:  | | | functions.php -> getDetailPesananKey() -> selectkey : SELECT MAX(detail_pesanan_key) AS detail_key FROM detail_pesanan; [] []
[2019-11-01 21:18:19] RabbitPrint.WARNING:  | | | functions.php -> getDetailPesananKey() -> detail_key : 0000000001 [] []
[2019-11-01 21:18:19] RabbitPrint.WARNING:  | | | pesanan.php -> load [] []
[2019-11-01 21:27:15] RabbitPrint.WARNING:  | | | functions.php -> getKodePesanan() -> selectkey : SELECT MAX(pesanan.pesanan_no_pesanan) AS psnkey FROM pesanan WHERE pesanan.pesanan_no_pesanan LIKE '%PSN/20191101/%' [] []
[2019-11-01 21:27:15] RabbitPrint.WARNING:  | | | functions.php -> getKodePesanan() -> psn_key : PSN/20191101/001 [] []
[2019-11-01 21:27:15] RabbitPrint.WARNING:  | | | proses_pesanan.php -> load.. [] []
[2019-11-01 21:27:15] RabbitPrint.WARNING:  | | | proses_pesanan.php -> string query detail_pesanan -> sql_detail : INSERT INTO detail_pesanan (cre_tms, upd_tms, cre_usr, upd_usr, detail_pesanan_no_pesanan, detail_pesanan_key, detail_pesanan_nama_barang, detail_pesanan_jenis_print, detail_pesanan_warna, detail_pesanan_detail_kain, detail_pesanan_nama_warna, detail_pesanan_ukuran, detail_pesanan_sisi_kanan, detail_pesanan_sisi_kiri, detail_pesanan_sisi_blkng, detail_pesanan_qty, detail_pesanan_satuan, detail_pesanan_qty_packing, detail_pesanan_jenis_packing, detail_pesanan_keterangan) VALUES ( NOW(), NOW(), 'superuser', 'superuser', 'PSN/20191101/001', '0000000001', 'KAIN PUTIH POLOS', 'TAYO', 3, 'A001', 'BIRU', 'S', 20, 20, 20, 20, 'PS', 60, 'PT', '1 BK KANAN'),( NOW(), NOW(), 'superuser', 'superuser', 'PSN/20191101/001', '0000000002', 'KAIN PUTIH POLOS', 'TAYO', 3, 'A001', 'BIRU', 'M', 20, 20, 20, 20, 'PS', 60, 'PT', ''),( NOW(), NOW(), 'superuser', 'superuser', 'PSN/20191101/001', '0000000003', 'KAIN PUTIH POLOS', 'TAYO', 3, 'B001', 'HITAM', 'S', 20, 20, 20, 20, 'PS', 60, 'PT', ''),( NOW(), NOW(), 'superuser', 'superuser', 'PSN/20191101/001', '0000000004', 'KAIN PUTIH POLOS', 'TAYO', 3, 'B001', 'HITAM', 'M', 20, 20, 20, 20, 'PS', 60, 'PT', ''),( NOW(), NOW(), 'superuser', 'superuser', 'PSN/20191101/001', '0000000005', 'KAIN PUTIH POLOS', 'TAYO', 3, 'C001', 'ABU-ABU', 'S', 20, 20, 20, 20, 'PS', 60, 'PT', ''),( NOW(), NOW(), 'superuser', 'superuser', 'PSN/20191101/001', '0000000006', 'KAIN PUTIH POLOS', 'TAYO', 3, 'C001', 'ABU-ABU', 'M', 20, 20, 20, 20, 'PS', 60, 'PT', ''),( NOW(), NOW(), 'superuser', 'superuser', 'PSN/20191101/001', '0000000007', 'ZZZ', 'ZZ', 1, 'AC111', '', '', 0, 0, 0, 0, 'PS', 1, 'PT', ''),( NOW(), NOW(), 'superuser', 'superuser', 'PSN/20191101/001', '0000000008', 'KAIN PUTIH POLOS', 'TAYO', 3, 'A001', 'BIRU', 'S', 10, 10, 10, 10, 'PS', 30, 'PT', ''),( NOW(), NOW(), 'superuser', 'superuser', 'PSN/20191101/001', '0000000009', 'KAIN PUTIH POLOS', 'TAYO', 3, 'A001', 'BIRU', 'M', 10, 10, 10, 10, 'PS', 30, 'PT', '') [] []
[2019-11-01 21:27:15] RabbitPrint.WARNING:  | | | proses_pesanan.php -> string query pesanan -> sql_pesanan : INSERT INTO pesanan (cre_tms, upd_tms, cre_usr, upd_usr, pesanan_no_pesanan, pesanan_no_surat_jalan_masuk, pesanan_jenis_pesanan, pesanan_tanggal_pesanan, pesanan_pelanggan_id, pesanan_total_qty, pesanan_total_qty_packing) VALUES (NOW(), NOW(), 'superuser', 'superuser', 'PSN/20191101/001', 'QWE123', 'A', '2019-11-01', '2', NAN, 420) [] []
[2019-11-01 21:27:15] RabbitPrint.WARNING:  | | | proses_pesanan.php -> insert ke pesanan -> sql_pesanan : INSERT INTO pesanan (cre_tms, upd_tms, cre_usr, upd_usr, pesanan_no_pesanan, pesanan_no_surat_jalan_masuk, pesanan_jenis_pesanan, pesanan_tanggal_pesanan, pesanan_pelanggan_id, pesanan_total_qty, pesanan_total_qty_packing) VALUES (NOW(), NOW(), 'superuser', 'superuser', 'PSN/20191101/001', 'QWE123', 'A', '2019-11-01', '2', NAN, 420) [] []
[2019-11-01 21:27:15] RabbitPrint.WARNING:  | | | proses_pesanan.php -> insert ke pesanan -> GAGAL : Unknown column 'NAN' in 'field list' [] []
[2019-11-01 21:27:31] RabbitPrint.WARNING:  | | | data_pelanggan.php -> sel_pelanggan : SELECT * FROM pelanggan [] []
[2019-11-01 21:27:31] RabbitPrint.WARNING:  | | | data_pelanggan.php -> jml. pelanggan : 1 [] []
[2019-11-01 21:27:31] RabbitPrint.WARNING:  | | | functions.php -> getDetailPesananKey() -> selectkey : SELECT MAX(detail_pesanan_key) AS detail_key FROM detail_pesanan; [] []
[2019-11-01 21:27:31] RabbitPrint.WARNING:  | | | functions.php -> getDetailPesananKey() -> detail_key : 0000000001 [] []
[2019-11-01 21:27:31] RabbitPrint.WARNING:  | | | pesanan.php -> load [] []
[2019-11-01 21:38:03] RabbitPrint.WARNING:  | | | functions.php -> getKodePesanan() -> selectkey : SELECT MAX(pesanan.pesanan_no_pesanan) AS psnkey FROM pesanan WHERE pesanan.pesanan_no_pesanan LIKE '%PSN/20191101/%' [] []
[2019-11-01 21:38:03] RabbitPrint.WARNING:  | | | functions.php -> getKodePesanan() -> psn_key : PSN/20191101/001 [] []
[2019-11-01 21:38:03] RabbitPrint.WARNING:  | | | proses_pesanan.php -> load.. [] []
[2019-11-01 21:38:03] RabbitPrint.WARNING:  | | | proses_pesanan.php -> string query detail_pesanan -> sql_detail : INSERT INTO detail_pesanan (cre_tms, upd_tms, cre_usr, upd_usr, detail_pesanan_no_pesanan, detail_pesanan_key, detail_pesanan_nama_barang, detail_pesanan_jenis_print, detail_pesanan_warna, detail_pesanan_detail_kain, detail_pesanan_nama_warna, detail_pesanan_ukuran, detail_pesanan_sisi_kanan, detail_pesanan_sisi_kiri, detail_pesanan_sisi_blkng, detail_pesanan_qty, detail_pesanan_satuan, detail_pesanan_qty_packing, detail_pesanan_jenis_packing, detail_pesanan_keterangan) VALUES ( NOW(), NOW(), 'superuser', 'superuser', 'PSN/20191101/001', '0000000001', 'KAIN PUTIH', 'TAYO', 3, 'A001', 'BIRU', 'XS', 20, 20, 20, 20, 'PS', 60, 'PT', ''),( NOW(), NOW(), 'superuser', 'superuser', 'PSN/20191101/001', '0000000002', 'KAIN PUTIH', 'TAYO', 3, 'A001', 'BIRU', 'S', 20, 20, 20, 20, 'PS', 60, 'PT', ''),( NOW(), NOW(), 'superuser', 'superuser', 'PSN/20191101/001', '0000000003', 'KAIN PUTIH', 'TAYO', 3, 'B001', 'MERAH', 'XS', 20, 20, 20, 20, 'PS', 60, 'PT', ''),( NOW(), NOW(), 'superuser', 'superuser', 'PSN/20191101/001', '0000000004', 'KAIN PUTIH', 'TAYO', 3, 'B001', 'MERAH', 'S', 20, 20, 20, 20, 'PS', 60, 'PT', ''),( NOW(), NOW(), 'superuser', 'superuser', 'PSN/20191101/001', '0000000005', 'KAIN PUTIH', 'TAYO', 3, 'A001', 'BIRU', 'M', 20, 20, 20, 20, 'PS', 60, 'PT', ''),( NOW(), NOW(), 'superuser', 'superuser', 'PSN/20191101/001', '0000000006', 'KAIN PUTIH', 'TAYO', 3, 'A001', 'BIRU', 'L', 20, 20, 20, 20, 'PS', 60, 'PT', '') [] []
[2019-11-01 21:38:03] RabbitPrint.WARNING:  | | | proses_pesanan.php -> string query pesanan -> sql_pesanan : INSERT INTO pesanan (cre_tms, upd_tms, cre_usr, upd_usr, pesanan_no_pesanan, pesanan_no_surat_jalan_masuk, pesanan_jenis_pesanan, pesanan_tanggal_pesanan, pesanan_pelanggan_id, pesanan_total_qty, pesanan_total_qty_packing) VALUES (NOW(), NOW(), 'superuser', 'superuser', 'PSN/20191101/001', 'ASD123', 'A', '2019-11-01', '5', 120, 360) [] []
[2019-11-01 21:38:03] RabbitPrint.WARNING:  | | | proses_pesanan.php -> insert ke pesanan -> sql_pesanan : INSERT INTO pesanan (cre_tms, upd_tms, cre_usr, upd_usr, pesanan_no_pesanan, pesanan_no_surat_jalan_masuk, pesanan_jenis_pesanan, pesanan_tanggal_pesanan, pesanan_pelanggan_id, pesanan_total_qty, pesanan_total_qty_packing) VALUES (NOW(), NOW(), 'superuser', 'superuser', 'PSN/20191101/001', 'ASD123', 'A', '2019-11-01', '5', 120, 360) [] []
[2019-11-01 21:38:03] RabbitPrint.WARNING:  | | | proses_pesanan.php -> insert ke pesanan -> BERHASIL [] []
[2019-11-01 21:38:03] RabbitPrint.WARNING:  | | | proses_pesanan.php -> insert ke detail_pesanan -> BERHASIL [] []
[2019-11-01 21:38:07] RabbitPrint.WARNING:  | | | data_pelanggan.php -> sel_pelanggan : SELECT * FROM pelanggan [] []
[2019-11-01 21:38:07] RabbitPrint.WARNING:  | | | data_pelanggan.php -> jml. pelanggan : 1 [] []
[2019-11-01 21:38:07] RabbitPrint.WARNING:  | | | functions.php -> getDetailPesananKey() -> selectkey : SELECT MAX(detail_pesanan_key) AS detail_key FROM detail_pesanan; [] []
[2019-11-01 21:38:07] RabbitPrint.WARNING:  | | | functions.php -> getDetailPesananKey() -> detail_key : 0000000007 [] []
[2019-11-01 21:38:07] RabbitPrint.WARNING:  | | | pesanan.php -> load [] []
[2019-11-01 21:38:18] RabbitPrint.WARNING:  | | | daftar_surat_jalan.php -> membuka halaman [] []
[2019-11-01 21:38:18] RabbitPrint.WARNING:  | | | daftar_surat_)jalan.php -> sel_daftar_surat_jalan : SELECT * FROM surat_jalan ORDER BY surat_jalan_id DESC [] []
[2019-11-01 21:38:22] RabbitPrint.WARNING:  | | | daftar_pesanan.php -> membuka halaman [] []
[2019-11-01 21:38:22] RabbitPrint.WARNING:  | | | daftar_pesanan.php -> sel_pesanan : SELECT psn.*, plg.pelanggan_nama	FROM pesanan psn JOIN pelanggan plg ON plg.pelanggan_id = psn.pesanan_pelanggan_id ORDER BY psn.pesanan_id DESC [] []
[2019-11-01 21:38:22] RabbitPrint.WARNING:  | | | daftar_pesanan.php -> jml. pesanan : 0 [] []
